{
  "project_info": {
    "project_number": "359899785987",
    "project_id": "nsc-atk-testing",
    "storage_bucket": "nsc-atk-testing.appspot.com"
  },
  "client": [
    {
      "client_info": {
        "mobilesdk_app_id": "1:359899785987:android:381efa79fc053ed0651736",
        "android_client_info": {
          "package_name": "com.company.nsc"
        }
      },
      "oauth_client": [
        {
          "client_id": "359899785987-guduqn1i3r8qqci7avv2kgrpm4us2qdr.apps.googleusercontent.com",
          "client_type": 3
        }
      ],
      "api_key": [
        {
          "current_key": "AIzaSyAST4OmgEDhYSWlQot3rRcoxVsZtpY-vbU"
        }
      ],
      "services": {
        "appinvite_service": {
          "other_platform_oauth_client": [
            {
              "client_id": "359899785987-guduqn1i3r8qqci7avv2kgrpm4us2qdr.apps.googleusercontent.com",
              "client_type": 3
            },
            {
              "client_id": "359899785987-fjsipj2uqkco15m4n0u9j0pdd7ph3ipj.apps.googleusercontent.com",
              "client_type": 2,
              "ios_info": {
                "bundle_id": "y"
              }
            }
          ]
        }
      }
    },
    {
      "client_info": {
        "mobilesdk_app_id": "1:359899785987:android:cc4a48febccc8007651736",
        "android_client_info": {
          "package_name": "com.example.flutter_task_planner_app"
        }
      },
      "oauth_client": [
        {
          "client_id": "359899785987-laukjgt4ev7ic7n79b0fd4q0r125jtu3.apps.googleusercontent.com",
          "client_type": 1,
          "android_info": {
            "package_name": "com.example.flutter_task_planner_app",
            "certificate_hash": "f2ef2992829e50533b9ca85cfa066163eb41c19f"
          }
        },
        {
          "client_id": "359899785987-guduqn1i3r8qqci7avv2kgrpm4us2qdr.apps.googleusercontent.com",
          "client_type": 3
        }
      ],
      "api_key": [
        {
          "current_key": "AIzaSyAST4OmgEDhYSWlQot3rRcoxVsZtpY-vbU"
        }
      ],
      "services": {
        "appinvite_service": {
          "other_platform_oauth_client": [
            {
              "client_id": "359899785987-guduqn1i3r8qqci7avv2kgrpm4us2qdr.apps.googleusercontent.com",
              "client_type": 3
            },
            {
              "client_id": "359899785987-fjsipj2uqkco15m4n0u9j0pdd7ph3ipj.apps.googleusercontent.com",
              "client_type": 2,
              "ios_info": {
                "bundle_id": "y"
              }
            }
          ]
        }
      }
    }
  ],
  "configuration_version": "1"
}